index.knit
…
---
class: 

# Mão na massa

#### Mapear as variáveis

As variáveis escolhidas para a minha análise são: **Wind** e **Temp**.

```r
select(airquality, Wind, Temp)
```

```
## # A tibble: 153 × 2
##     Wind  Temp
##    <dbl> <int>
##  1   7.4    67
##  2   8      72
##  3  12.6    74
##  4  11.5    62
##  5  14.3    56
##  6  14.9    66
##  7   8.6    65
##  8  13.8    59
##  9  20.1    61
## 10   8.6    69
## # … with 143 more rows
```
…
